Place,Name,Sex,Event,Division,WeightClassKg,Equipment,BirthYear,Team,State,BodyweightKg,Squat1Kg,Squat2Kg,Squat3Kg,Best3SquatKg,Bench1Kg,Bench2Kg,Bench3Kg,Best3BenchKg,Deadlift1Kg,Deadlift2Kg,Deadlift3Kg,Best3DeadliftKg,TotalKg,Age,BirthDate
1,Jack Bagley,M,B,MR-M1,125,Raw,1981,,NV,120,,,,,-117.5,117.5,127.5,127.5,,,,,127.5,,
1,Jack Bagley,M,B,MR-O,125,Raw,1981,,NV,120,,,,,-117.5,117.5,127.5,127.5,,,,,127.5,,
1,Kristin LeBlanc,F,SBD,FR-Jr,60,Raw,2000,,CA,59.25,100,107.5,112.5,112.5,55,60,-65,60,127.5,137.5,142.5,142.5,315,,
1,Maria Baesa,F,SBD,FR-Jr,75,Raw,1999,,NV,74.3,120,127.5,132.5,132.5,60,65,70,70,115,122.5,125,125,327.5,,
2,Xenos Reagans,F,SBD,FR-Jr,75,Raw,2000,,NV,72.5,-92.5,95,97.5,97.5,35,-37.5,-37.5,35,110,-120,-122.5,110,242.5,,
1,Diana Alrabadi,F,SBD,FR-Jr,67.5,Raw,2001,,NV,65.15,-105,112.5,-117.5,112.5,55,60,-62.5,60,132.5,140,145,145,317.5,,
1,Kristin LeBlanc,F,SBD,FR-O,60,Raw,2000,,CA,59.25,100,107.5,112.5,112.5,55,60,-65,60,127.5,137.5,142.5,142.5,315,,
2,Cynthia Escobedo,F,SBD,FR-O,60,Raw,1990,,NV,59.75,95,105,110,110,40,45,47.5,47.5,100,110,117.5,117.5,275,,
1,Susie Jeon,F,SBD,FR-O,75,Raw,1991,,NV,75,160,-167.5,167.5,167.5,67.5,72.5,-75,72.5,155,165,170,170,410,,
1,Jessica Hernandez,F,SBD,FR-O,90,Raw,1988,,CA,85.3,95,-100,100,100,50,55,-57.5,55,115,122.5,132.5,132.5,287.5,,
1,Joyce Accad,F,SBD,FR-O,100,Raw,1996,,NV,99.6,190,205,-210,205,107.5,115,-120,115,180,192.5,205,205,525,,
1,Alissia Smethurst,F,SBD,FR-T3,67.5,Raw,2003,,NV,65.5,97.5,105,112.5,112.5,57.5,60,-65,60,117.5,130,137.5,137.5,310,,
1,Gregory Larrabee,M,SBD,MR-Jr,75,Raw,2001,,WA,73.3,200,-212.5,212.5,212.5,112.5,117.5,125,125,200,212.5,220,220,557.5,,
2,Brandon Padilla,M,SBD,MR-Jr,75,Raw,1999,,NV,74.1,180,190,-192.5,190,107.5,115,122.5,122.5,200,210,220,220,532.5,,
3,Ethan Conrad Abdon,M,SBD,MR-Jr,75,Raw,2001,,NV,73,160,-170,180,180,105,110,112.5,112.5,225,237.5,-245,237.5,530,,
4,Umer Lakhani,M,SBD,MR-Jr,75,Raw,2001,,CA,71.8,135,140,145,145,95,100,105,105,180,185,190,190,440,,
5,Nico Andrei Manzano,M,SBD,MR-Jr,75,Raw,2001,,HI,74.95,100,110,122.5,122.5,67.5,75,-80,75,152.5,162.5,172.5,172.5,370,,
1,Noah Manuel,M,SBD,MR-Jr,90,Raw,2001,,HI,89.15,212.5,227.5,237.5,237.5,127.5,130,-132.5,130,225,-245,-245,225,592.5,,
2,Anthony Kang,M,SBD,MR-Jr,90,Raw,2001,,IL,83.2,150,160,167.5,167.5,100,115,-122.5,115,150,165,-177.5,165,447.5,,
1,Roman Ingrassi,M,SBD,MR-Jr,100,Raw,2000,,NV,96.45,190,195,200,200,125,130,135,135,220,230,-232.5,230,565,,
1,Jason Siciliano,M,SBD,MR-Jr,140+,Raw,2001,,NV,153.9,225,240,-250,240,147.5,155,162.5,162.5,190,202.5,212.5,212.5,615,,
1,Christopher Rivera,M,SBD,MR-Jr,82.5,Raw,2001,The Strength Initiative,CA,81.95,250,270,285,285,170,182.5,195,195,250,265,275,275,755,,
2,Thien-Tan La,M,SBD,MR-Jr,82.5,Raw,2001,The Strength Initiative,CA,81.95,220,237.5,242.5,242.5,-145,145,-155,145,210,220,230,230,617.5,,
3,Diego Castro,M,SBD,MR-Jr,82.5,Raw,2002,,NV,82.15,-187.5,197.5,-207.5,197.5,107.5,-120,-120,107.5,187.5,-202.5,-202.5,187.5,492.5,,
1,Ken Bernard,M,SBD,MR-M1,82.5,Raw,1976,,NV,81.2,145,150,-155,150,92.5,97.5,-102.5,97.5,192.5,207.5,210,210,457.5,,
1,Dylan Cabico,M,SBD,MR-O,75,Raw,1993,,NV,74.55,175,185,195,195,145,152.5,160,160,197.5,212.5,227.5,227.5,582.5,,
2,Gregory Larrabee,M,SBD,MR-O,75,Raw,2001,,WA,73.3,200,-212.5,212.5,212.5,112.5,117.5,125,125,200,212.5,220,220,557.5,,
3,Ethan Conrad Abdon,M,SBD,MR-O,75,Raw,2001,,NV,73,160,-170,180,180,105,110,112.5,112.5,225,237.5,-245,237.5,530,,
4,Richard Gonzales,M,SBD,MR-O,75,Raw,1991,,CA,72.9,157.5,165,-175,165,105,110,-120,110,170,177.5,187.5,187.5,462.5,,
1,Julian Sirkin,M,SBD,MR-O,90,Raw,1990,,MA,89.35,230,-237.5,-242.5,230,147.5,155,-157.5,155,250,260,272.5,272.5,657.5,,
2,Carlos Castro,M,SBD,MR-O,90,Raw,1990,,NV,90,230,-250,-250,230,125,135,-142.5,135,245,-260,-260,245,610,,
3,Samuel Yoon,M,SBD,MR-O,90,Raw,1995,,NV,88.4,135,142.5,147.5,147.5,97.5,105,107.5,107.5,160,170,-175,170,425,,
1,Thomas Marquis,M,SBD,MR-O,100,Raw,1998,,NV,99.05,225,235,-245,235,130,-140,140,140,250,260,-272.5,260,635,,
2,Alvin Accad,M,SBD,MR-O,100,Raw,1994,,NV,93.05,190,200,210,210,110,115,120,120,200,220,-227.5,220,550,,
1,Tate Castro,M,SBD,MR-O,82.5,Raw,1994,,CA,81.1,147.5,160,-167.5,160,112.5,117.5,120,120,207.5,222.5,235,235,515,,
1,Denzel Robinson,M,SBD,MR-T2,82.5,Raw,2005,,NV,80.45,192.5,202.5,207.5,207.5,117.5,125,127.5,127.5,290,307.5,-317.5,307.5,642.5,,
1,Joshua Alrabadi,M,SBD,MR-T3,90,Raw,2004,,NV,87.95,155,165,170,170,100,110,-115,110,200,215,225,225,505,,
1,Massimo Ravina,M,SBD,MR-T3,100,Raw,2003,,NV,97.9,177.5,195,205,205,117.5,-130,-130,117.5,202.5,215,227.5,227.5,550,,
1,Timothy Ochoa,M,SBD,MR-T3,67.5,Raw,2003,,CA,67.05,190,197.5,202.5,202.5,122.5,130,132.5,132.5,237.5,250,255,255,590,,
1,Jessica Jercinovic,F,BD,FR-M1,90,Raw,1976,,NV,89.3,,,,,55,60,65,65,110,120,130,130,195,,
