WeightClassKg,Name,Best3SquatKg,Best3BenchKg,Best3DeadliftKg,TotalKg,Place,BodyweightKg,Event,Equipment,Division,Sex,AgeRange
56,Brian Fairbrother,137.5,72.5,160,370,1,,SBD,Single-ply,M-E-Master1,M,40-49
56,J. Tillman #1,120,80,165,365,2,,SBD,Single-ply,M-E-Master1,M,40-49
56,Andre Valin,175,95,190,460,1,,SBD,Single-ply,M-E-Master,M,50-99
56,Bob Cross,100,65,150,315,2,,SBD,Single-ply,M-E-Master,M,50-99
56,Ron Cluer,62.5,52.5,82.5,197.5,3,,SBD,Single-ply,M-E-Master,M,50-99
60,Roger Powell #1,170,100,200,470,1,,SBD,Single-ply,M-E-Master1,M,40-49
60,John O'Brien #1,157.5,95,202.5,455,2,,SBD,Single-ply,M-E-Master1,M,40-49
60,Ted Brown,160,115,180,455,1,,SBD,Single-ply,M-E-Master,M,50-99
67.5,Mick Barry,220,142.5,230,592.5,1,,SBD,Single-ply,M-E-Master1,M,40-49
67.5,Malcolm Bainbridge,215,125,235,575,2,,SBD,Single-ply,M-E-Master1,M,40-49
67.5,D. Tucker,190,105,227.5,522.5,3,,SBD,Single-ply,M-E-Master1,M,40-49
67.5,R. Bunyan,165,100,225,490,4,,SBD,Single-ply,M-E-Master1,M,40-49
67.5,B. Phillips,165,117.5,195,477.5,5,,SBD,Single-ply,M-E-Master1,M,40-49
67.5,M. O'Brien,172.5,100,190,462.5,6,,SBD,Single-ply,M-E-Master1,M,40-49
67.5,J. Plested,180,120,220,520,1,,SBD,Single-ply,M-E-Master,M,50-99
75,Bob Limerick,240,140,300,680,1,,SBD,Single-ply,M-E-Master1,M,40-49
75,Mike Shaw,220,142.5,260,622.5,2,,SBD,Single-ply,M-E-Master1,M,40-49
75,Ernie Parkes,227.5,135,230,592.5,3,,SBD,Single-ply,M-E-Master1,M,40-49
75,J. Askew,202.5,140,200,542.5,4,,SBD,Single-ply,M-E-Master1,M,40-49
75,D. Spencer,192.5,132.5,215,540,5,,SBD,Single-ply,M-E-Master1,M,40-49
75,D. Herbert,182.5,117.5,227.5,527.5,6,,SBD,Single-ply,M-E-Master1,M,40-49
75,M Moseley,187.5,120,210,517.5,7,,SBD,Single-ply,M-E-Master1,M,40-49
75,G. Watson,180,115,215,510,8,,SBD,Single-ply,M-E-Master1,M,40-49
75,J. Urwin,,,,,DQ,,SBD,Single-ply,M-E-Master1,M,40-49
75,R. Brown #34,,,,,DQ,,SBD,Single-ply,M-E-Master1,M,40-49
75,Dave Roger,170,132.5,192.5,495,1,,SBD,Single-ply,M-E-Master,M,50-99
75,George Leggett,185,117.5,190,492.5,2,,SBD,Single-ply,M-E-Master,M,50-99
75,J. Worthington,175,70,200,445,3,,SBD,Single-ply,M-E-Master,M,50-99
75,L. Thomas,,,,,DQ,,SBD,Single-ply,M-E-Master,M,50-99
82.5,Ron Vaughan,275,155,300,730,1,,SBD,Single-ply,M-E-Master1,M,40-49
82.5,Ray Wade #1,232.5,162.5,267.5,662.5,2,,SBD,Single-ply,M-E-Master1,M,40-49
82.5,Roland Bonner,250,150,240,640,3,,SBD,Single-ply,M-E-Master1,M,40-49
82.5,B. Dixon,217.5,132.5,252.5,602.5,4,,SBD,Single-ply,M-E-Master1,M,40-49
82.5,G. Walker,220,122.5,245,587.5,5,,SBD,Single-ply,M-E-Master1,M,40-49
82.5,Alfred Summers,227.5,127.5,225,580,6,,SBD,Single-ply,M-E-Master1,M,40-49
82.5,A. McCann,200,110,210,520,7,,SBD,Single-ply,M-E-Master1,M,40-49
82.5,Davy Jones,185,95,260,540,1,,SBD,Single-ply,M-E-Master,M,50-99
82.5,Keith Clark #3,190,122.5,220,532.5,2,,SBD,Single-ply,M-E-Master,M,50-99
82.5,G. Joseph,150,117.5,192.5,460,3,,SBD,Single-ply,M-E-Master,M,50-99
82.5,W. Burns,147.5,87.5,177.5,412.5,4,,SBD,Single-ply,M-E-Master,M,50-99
82.5,A. Ringer,145,75,165,385,5,,SBD,Single-ply,M-E-Master,M,50-99
90,John Biddulph,260,162.5,310,732.5,1,,SBD,Single-ply,M-E-Master1,M,40-49
90,William Limerick,245,145,275,665,2,,SBD,Single-ply,M-E-Master1,M,40-49
90,Robert Orr #3,250,142.5,235,627.5,3,,SBD,Single-ply,M-E-Master1,M,40-49
90,A. McKinley,212.5,145,240,597.5,4,,SBD,Single-ply,M-E-Master1,M,40-49
90,D. Singh,225,117.5,225,567.5,5,,SBD,Single-ply,M-E-Master1,M,40-49
90,D. Lewis #7,165,115,227.5,507.5,6,,SBD,Single-ply,M-E-Master1,M,40-49
90,John Lopez,177.5,100,225,502.5,1,,SBD,Single-ply,M-E-Master,M,50-99
90,D. Walker,180,105,192.5,477.5,4,,SBD,Single-ply,M-E-Master,M,50-99
90,E. Wright,180,100,212.5,492.5,2,,SBD,Single-ply,M-E-Master,M,50-99
90,G. Sumner,175,115,200,490,3,,SBD,Single-ply,M-E-Master,M,50-99
90,G. Brown,135,85,200,420,5,,SBD,Single-ply,M-E-Master,M,50-99
100,John West,250,150,260,660,1,,SBD,Single-ply,M-E-Master1,M,40-49
100,Gerry Cullen,230,145,230,605,2,,SBD,Single-ply,M-E-Master1,M,40-49
100,Ron Reeves,227.5,107.5,245,580,3,,SBD,Single-ply,M-E-Master1,M,40-49
100,Eddie Finnegan,140,112.5,200,452.5,1,,SBD,Single-ply,M-E-Master,M,50-99
110,Mick White,242.5,147.5,270,660,1,,SBD,Single-ply,M-E-Master1,M,40-49
125,Eddie Kershaw,275,140,295,710,1,,SBD,Single-ply,M-E-Master1,M,40-49
125,Mike Brown #30,270,115,300,685,2,,SBD,Single-ply,M-E-Master1,M,40-49
125,Melvyn Duckett,242.5,125,220,587.5,1,,SBD,Single-ply,M-E-Master,M,50-99
125+,Maurice Tuffin,240,145,240,625,1,,SBD,Single-ply,M-E-Master1,M,40-49
